{
  "options": {
  },
  "site": {
    "id": 1,
    "name": "My site",
    "handle": "my-site",
    "theme_handle": "landing_page",
    "style": {},
    "metadata": {
      "social_links": {
        "facebook": "http://www.facebook.com",
        "google": "http://www.google.com",
        "twitter": "http://www.twitter.com",
        "pinterest": "http://www.pinterest.com",
        "linkedin": "http://www.linkedin.com"
      }
    }
  },
  "page": {
    "id": 1,
    "title": "Home page",
    "slug": "index",
    "seo_title": "Home page",
    "position": 1,
    "site_id": 1,
    "content": {
      "blocks": [
        {
          "type": "nav",
          "position": 0,
          "content": {
            "logo": "/themes/landing_page/images/logo1.png",
            "links": [
              {
                "content": {
                  "label": "Home",
                  "url": "#"
                }
              },
              {
                "content": {
                  "label": "Features",
                  "url": "#"
                }
              }
            ],
            "auth_links": [
              {
                "content": {
                  "label": "Sign in",
                  "url": "#"
                }
              },
              {
                "content": {
                  "label": "Sign up",
                  "url": "#",
                  "highlighted": true
                }
              }
            ]
          }
        },
        {
          "type": "carousel",
          "position": 1,
          "content": {
            "speed": 0,
            "sideNavigation": true,
            "bottomNavigation": true,
            "slides": [
              {
                "content": {
                  "image": "http://placehold.it/1100x400&text=image",
                  "heading": "Slide #1. Hello Alex"
                }
              },
              {
                "content": {
                  "image": "http://placehold.it/1100x400&text=image",
                  "heading": "Slide #2"
                }
              }
            ]
          }
        },
        {
          "type": "header",
          "position": 1,
          "content": {
            "preTitle": "The <i>Rapture</i> Startup UI Kit",
            "title": "Make an <i>Awesome</i> Website",
            "postTitle": "We made it so beutiful and simple. It combines landings, pages, blogs and shop screens. It is definitely the tool you need in your collection!",
            "buttons": [
              {
                "content": {
                  "label": "PURCHASE NOW <i>for</i> $48",
                  "url": "#",
                  "highlighted": true
                }
              },
              {
                "content": {
                  "label": "LEARN MORE",
                  "url": "#"
                }
              }
            ]
          }
        },
        {
          "type": "features",
          "position": 2,
          "content": {
            "features": [
              {
                "content": {
                  "icon": "fa-font-awesome",
                  "title": "make it minimal",
                  "description": "Clean modern layouts match <br>last web design trends."
                }
              },
              {
                "content": {
                  "icon": "fa-font-awesome",
                  "title": "MIX & MATCH",
                  "description": "Drag-and-drop blocks make it<br>easy to create any web-site."
                }
              },
              {
                "content": {
                  "icon": "fa-font-awesome",
                  "title": "RETINA READY",
                  "description": "So there's no need to worry<br>about optimizing your assets."
                }
              },
              {
                "content": {
                  "icon": "fa-font-awesome",
                  "title": "MADE FOR PS & SKETCH",
                  "description": "Works in Photoshop CS6+<br>and Sketch 3.5+"
                }
              },
              {
                "content": {
                  "icon": "fa-font-awesome",
                  "title": "FREE GOOGLE FONTS",
                  "description": "Used most popular free fonts: Montserrat & Droid Serif."
                }
              },
              {
                "content": {
                  "icon": "fa-font-awesome",
                  "title": "SAVE YOUR TIME",
                  "description": "Spend your time creating, not building basic elements."
                }
              }
            ]
          }
        },
        {
          "type": "work",
          "position": 3,
          "content": {
            "title": "Our Recent Work",
            "description": "Plastic designs & develops digital experiences<br>that put people first.",
            "background": "/themes/landing_page/images/bg_sec2_1.jpg",
            "action": {
              "label": "Show more",
              "url": "#"
            },
            "projects": [
              {
                "content": {
                  "title": "Alarm Radio",
                  "image": "/themes/landing_page/images/img_sec2_1_1.jpg",
                  "url": "#"
                }
              },
              {
                "content": {
                  "title": "Nexus 5 Mockups",
                  "image": "/themes/landing_page/images/img_sec2_1_2.jpg",
                  "url": "#"
                }
              },
              {
                "content": {
                  "title": "Greyhound",
                  "image": "/themes/landing_page/images/img_sec2_1_3.jpg",
                  "url": "#"
                }
              },
              {
                "content": {
                  "title": "Portland",
                  "image": "/themes/landing_page/images/img_sec2_1_4.jpg",
                  "url": "#"
                }
              },
              {
                "content": {
                  "title": "Babelbay",
                  "image": "/themes/landing_page/images/img_sec2_1_5.jpg",
                  "url": "#"
                }
              },
              {
                "content": {
                  "title": "Carwash",
                  "image": "/themes/landing_page/images/img_sec2_1_6.jpg",
                  "url": "#"
                }
              }
            ]
          }
        },
        {
          "type": "feature",
          "position": 4,
          "content": {
            "title": "Your site will look<br>great and work<br> seamlessly across<br> differences",
            "preTitle": "THE <strong>RAPTURE</strong> STARTUP",
            "description": "<p>Built the website you love with 25 high-<br/>quality templates, each designed for a<br/> specific purpose.</p>",
            "image": "http://lorempixel.com/640/480/cats",
            "action": {
              "label": "View project",
              "url": "/",
              "target": true
            }
          }
        },
        {
          "type": "testimonials",
          "position": 5,
          "content": {
            "title": "What <i>Our Customers</i> Say About Us",
            "people": [
              {
                "content": {
                  "name": "Natalie Portman, Nestle",
                  "picture": "/themes/landing_page/images/sec5_1_photo1.jpg",
                  "testimonial": "Craftwork has created a sense of comparison and even exploration, but as an instant medium. We must now devise spaces that deliver exploration, but with drama and surprise"
                }
              },
              {
                "content": {
                  "name": "Cameron Dowman, Nescafe",
                  "picture": "/themes/landing_page/images/sec5_1_photo2.jpg",
                  "testimonial": "Craftwork has created a sense of comparison and even exploration, but as an instant medium. We must now devise spaces that deliver exploration, but with drama and surprise"
                }
              },
              {
                "content": {
                  "name": "Emma Whatson, Google",
                  "picture": "/themes/landing_page/images/sec5_1_photo3.jpg",
                  "testimonial": "Craftwork has created a sense of comparison and even exploration, but as an instant medium. We must now devise spaces that deliver exploration, but with drama and surprise"
                }
              }
            ]
          }
        },
        {
          "type": "companies",
          "position": 6,
          "content": {
            "title": "Enim qui est sed.",
            "list": [
              {
                "content": {
                  "name": "nescafe",
                  "image": "/themes/landing_page/images/sec6_1_logo_1.png"
                }
              },
              {
                "content": {
                  "name": "goldman sachs",
                  "image": "/themes/landing_page/images/sec6_1_logo_2.png"
                }
              },
              {
                "content": {
                  "name": "chupa chups",
                  "image": "/themes/landing_page/images/sec6_1_logo_3.png"
                }
              },
              {
                "content": {
                  "name": "gillette",
                  "image": "/themes/landing_page/images/sec6_1_logo_4.png"
                }
              },
              {
                "content": {
                  "name": "hewlett packard",
                  "image": "/themes/landing_page/images/sec6_1_logo_5.png"
                }
              }
            ]
          }
        },
        {
          "type": "team",
          "position": 7,
          "content": {
            "title": "Laboriosam dolore optio nulla.",
            "postTitle": "Culpa molestias nisi dolor dolorem in odit blanditiis repellendus.",
            "people": [
              {
                "content": {
                  "name": "Steven Kingsman",
                  "picture": "/themes/landing_page/images/sec7_1_team1.jpg",
                  "bio": "As CEO of Craftwork, Steven is driving the company’s vision of connecting businesses with talent faster than ever. He is an expert on working with professionals around the world, having also managed the company’s global tech team of 300+ product managers, designers and engineers.",
                  "twitter": "http://www.twitter.com",
                  "facebook": "http://www.facebook.com",
                  "google": "http://www.googleplus.com"
                }
              },
              {
                "content": {
                  "name": "Alexander Ralphs",
                  "picture": "/themes/landing_page/images/sec7_1_team2.jpg",
                  "bio": "As CEO of Craftwork, Steven is driving the company’s vision of connecting businesses with talent faster than ever. He is an expert on working with professionals around the world, having also managed the company’s global tech team of 300+ product managers, designers and engineers.",
                  "twitter": "http://www.twitter.com",
                  "facebook": "http://www.facebook.com"
                }
              },
              {
                "content": {
                  "name": "Taylor Richards",
                  "picture": "/themes/landing_page/images/sec7_1_team3.jpg",
                  "bio": "Hayden leads Upwork’s product and design teams and oversees the company’s products across desktop, web and mobile. She is passionate about the enduring positive impact of Craftwork’s marketplace for matching talent with jobs across traditional economic and geographic boundaries.",
                  "twitter": "http://www.twitter.com",
                  "facebook": "http://www.facebook.com",
                  "google": "http://www.googleplus.com"
                }
              }
            ]
          }
        },
        {
          "type": "numbers",
          "position": 8,
          "content": {
            "title": "What is Inside",
            "postTitle": "We're talking $150 worth of Photoshop and Sketch templates. Totally customized. We hope you get all you need.",
            "elements": [
              {
                "content": {
                  "label": "Pages",
                  "number": "20",
                  "icon": "fa-sticky-note-o"
                }
              },
              {
                "content": {
                  "label": "blocks",
                  "number": "170",
                  "icon": "fa-cubes"
                }
              },
              {
                "content": {
                  "label": "elements",
                  "number": "600",
                  "icon": "fa-newspaper-o"
                }
              }
            ]
          }
        },
        {
          "type": "call_to_action",
          "position": 9,
          "content": {
            "text": "The <i>Rapture</i> Startup will help designers and developers create awesome websites for their startups.",
            "action": {
              "label": "Purchase now <i>for</i> $55",
              "url": "/"
            },
            "link": {
              "label": "Read License Agreement",
              "url": "/"
            }
          }
        },
        {
          "type": "footer",
          "position": 10,
          "content": {
            "name": "Eum tempora tenetur voluptas est.",
            "description": "Repellat magni reprehenderit eum adipisci.",
            "twitter": "http://twitter.com",
            "github": "http://github.com",
            "titleCol1": "Learn more",
            "linksCol1": [
              {
                "content": {
                  "label": "How it works",
                  "url": "/"
                }
              },
              {
                "content": {
                  "label": "Meeting tools",
                  "url": "/"
                }
              },
              {
                "content": {
                  "label": "Live streaming",
                  "url": "/"
                }
              },
              {
                "content": {
                  "label": "Contact method",
                  "url": "/"
                }
              }
            ],
            "titleCol2": "About Us",
            "linksCol2": [
              {
                "content": {
                  "label": "About us",
                  "url": "/"
                }
              },
              {
                "content": {
                  "label": "Features",
                  "url": "/"
                }
              },
              {
                "content": {
                  "label": "Privacy policy",
                  "url": "/"
                }
              },
              {
                "content": {
                  "label": "Terms and conditions",
                  "url": "/"
                }
              }
            ],
            "titleCol3": "Support",
            "linksCol3": [
              {
                "content": {
                  "label": "F.A.Q",
                  "url": "/"
                }
              },
              {
                "content": {
                  "label": "Contact Us",
                  "url": "/"
                }
              },
              {
                "content": {
                  "label": "Live chat",
                  "url": "/"
                }
              },
              {
                "content": {
                  "label": "Phone call",
                  "url": "/"
                }
              }
            ]
          }
        },
        {
          "type": "simple_footer",
          "position": "11",
          "content": {
            "name": "All Rights Reserved.",
            "links": [
              {
                "content": {
                  "label": "Useful links",
                  "url": "/"
                }
              },
              {
                "content": {
                  "label": "Store",
                  "url": "/"
                }
              },
              {
                "content": {
                  "label": "Contact Us",
                  "url": "/"
                }
              }
            ]
          }
        }
      ]
    }
  }
}
